{
  "HorizonLayout": [
    {
      "layout": "logo",
      "image": "assets/icons/from_lanfar/icon_ avatar@2x.jpg",
      "showMenu": true,
      "showSearch": true,
      "showLogo": true,
      "name": ""
    },
    {
      "layout": "bannerImage",
      "isSlider": true,
      "autoPlay": false,
      "showNumber": false,
      "design": "default",
      "showBackGround": true,
      "radius": 2.0,
      "size": 0.1,
      "items": [
        {
          "category": 29,
          "image": "assets/icons/from_lanfar/app_750x564px-2.png",
          "padding": 15.0
        },
        {
          "category": 28,
          "image": "assets/icons/from_lanfar/app_750x564px-2.png",
          "padding": 15.0
        },
        {
          "product": 30,
          "image": "assets/icons/from_lanfar/app_750x564px-2.png",
          "padding": 15.0
        }
      ]
    },
    {
      "layout": "category",
      "type": "icon",
      "wrap": true,
      "size": 0.8,
      "radius": 50.0,
      "columns": 3,
      "items": [
        {
          "name": "線上購物",
          "category": 0,
          "image": "assets/icons/from_lanfar/home-icon-01@2x.png",
          "colors": [
            "#3CC2BF",
            "#3CC2BF"
          ],
          "originalColor": false
        },
        {
          "name": "業績查詢",
          "category": 24,
          "image": "assets/icons/from_lanfar/home-icon-02@2x.png",
          "colors": [
            "#3E6AB5",
            "#3E6AB5"
          ]
        },
        {
          "name": "點數查詢",
          "category": 25,
          "image": "assets/images/home_icon06@2x.png",
          "colors": [
            "#53A2CC",
            "#53A2CC"
          ]
        },
        {
          "name": "行事月曆",
          "category": 28,
          "label": "Shoes",
          "image": "assets/icons/from_lanfar/home-icon-04@2x.png",
          "colors": [
            "#53688A",
            "#53688A"
          ]
        },
        {
          "name": "文宣影片",
          "category": 29,
          "image": "assets/icons/from_lanfar/home-icon-05@2x.png",
          "colors": [
            "#43506A",
            "#43506A"
          ]
        },
        {
          "name": "我的賣場",
          "category": 25,
          "image": "assets/icons/from_lanfar/device_hub.png",
          "colors": [
            "#53A2CC",
            "#53A2CC"
          ]
        }
      ]
    }
  ],
  "Setting": {
    "MainColor": "#00A4E4",
    "FontFamily": "Roboto",
    "FontHeader": "Raleway",
    "ProductListLayout": "list",
    "StickyHeader": true,
    "ShowChat": true
  },
  "TabBar": [
    {
      "layout": "home",
      "icon": "assets/icons/from_lanfar/other_houses_FILL0_wght400_GRAD0_opsz48.svg",
      "label": "首頁"
    },
    {
      "layout": "products",
      "icon": "assets/icons/from_lanfar/shopping_cart_FILL0_wght400_GRAD0_opsz48.svg",
      "label": "線上購物"
    },
    {
      "layout": "performance",
      "icon": "assets/icons/from_lanfar/saved_search_FILL0_wght400_GRAD0_opsz48.svg",
      "label": "業績查詢"
    },
    {
      "layout": "cart",
      "icon": "assets/icons/from_lanfar/shopping_cart_checkout_FILL0_wght400_GRAD0_opsz48.svg",
      "label": "購物車"
    },
    {
      "layout": "profile",
      "icon": "assets/icons/from_lanfar/person_FILL0_wght400_GRAD0_opsz48.svg",
      "label": "會員中心"
    }
  ],
  "searchSuggestion": [
    "Here are some suggestions:",
    "Print",
    "T-Shirt",
    "Jersey",
    "Hoodie"
  ],
  "Drawer": {
    "logo": "assets/icons/from_lanfar/icon_ avatar@2x.jpg",
    "name": "",
    "background": null,
    "items": [
      {"type": "profile", "show": true},
      {"type": "blog","show":  true},
      {"type": "purchase", "show": true},
      {"type": "performance", "show": true},
      {"type": "video", "show": true},
      {"type": "calendar", "show": true},
      {"type": "help", "show": true},
      {"type": "contact", "show": true},
      {"type": "website", "show": true},
      {"type": "login", "show": true},
      {"type": "category", "show": true}
    ]
  }
}